% Model,BRS_Swirler_45deg_noslip_LNSE_radTangMapping.mph
% Version,COMSOL 4.4.0.248
% Date,"Nov 28 2017, 11:47"
% Table,Probe Table 1 - 
% fin,freq,abs(f_mid) (1)
0,0,0
1,100,-5.302485470644971
1,200,-10.58124888258968
1,300,-15.824910341795336
1,400,-21.06061894414514
1,500,-26.315300278090483
1,600,-31.574974135474687
1,700,-36.81481477674339
1,800,-42.03880676485865
1,900,-47.26287564634982
1,1000,-52.48852571483147
0,0,0
0,100,12.61865019138427
0,200,21.922665830743146
0,300,27.83734382955043
0,400,31.524338487743947
0,500,33.455349658157814
0,600,33.77664187853913
0,700,32.99363047272542
0,800,31.58083893956806
0,900,29.719206272233613
0,1000,27.456188263197358
