<?xml version="1.0" encoding="UTF-8" standalone="no"?>
<!-- Created with Inkscape (http://www.inkscape.org/) -->

<svg
   xmlns:dc="http://purl.org/dc/elements/1.1/"
   xmlns:cc="http://creativecommons.org/ns#"
   xmlns:rdf="http://www.w3.org/1999/02/22-rdf-syntax-ns#"
   xmlns:svg="http://www.w3.org/2000/svg"
   xmlns="http://www.w3.org/2000/svg"
   xmlns:sodipodi="http://sodipodi.sourceforge.net/DTD/sodipodi-0.dtd"
   xmlns:inkscape="http://www.inkscape.org/namespaces/inkscape"
   width="298.22995"
   height="288.755"
   id="svg2"
   version="1.1"
   inkscape:version="0.48.4 r9939"
   sodipodi:docname="Nomenklatur21.eps">
  <defs
     id="defs4">
    <marker
       inkscape:stockid="Arrow1Mend"
       orient="auto"
       refY="0"
       refX="0"
       id="Arrow1Mend"
       style="overflow:visible">
      <path
         id="path4176"
         d="M 0,0 5,-5 -12.5,0 5,5 0,0 z"
         style="fill-rule:evenodd;stroke:#000000;stroke-width:1pt"
         transform="matrix(-0.4,0,0,-0.4,-4,0)"
         inkscape:connector-curvature="0" />
    </marker>
    <marker
       inkscape:stockid="Arrow1Mstart"
       orient="auto"
       refY="0"
       refX="0"
       id="Arrow1Mstart"
       style="overflow:visible">
      <path
         id="path4173"
         d="M 0,0 5,-5 -12.5,0 5,5 0,0 z"
         style="fill-rule:evenodd;stroke:#000000;stroke-width:1pt"
         transform="matrix(0.4,0,0,0.4,4,0)"
         inkscape:connector-curvature="0" />
    </marker>
    <marker
       inkscape:stockid="Arrow1Lstart"
       orient="auto"
       refY="0"
       refX="0"
       id="Arrow1Lstart"
       style="overflow:visible">
      <path
         id="path4167"
         d="M 0,0 5,-5 -12.5,0 5,5 0,0 z"
         style="fill-rule:evenodd;stroke:#000000;stroke-width:1pt"
         transform="matrix(0.8,0,0,0.8,10,0)"
         inkscape:connector-curvature="0" />
    </marker>
    <inkscape:path-effect
       effect="spiro"
       id="path-effect3914"
       is_visible="true" />
    <marker
       inkscape:stockid="Arrow1Mstart"
       orient="auto"
       refY="0"
       refX="0"
       id="Arrow1Mstart-6"
       style="overflow:visible">
      <path
         inkscape:connector-curvature="0"
         id="path4173-0"
         d="M 0,0 5,-5 -12.5,0 5,5 0,0 z"
         style="fill-rule:evenodd;stroke:#000000;stroke-width:1pt"
         transform="matrix(0.4,0,0,0.4,4,0)" />
    </marker>
    <marker
       inkscape:stockid="Arrow1Mstart"
       orient="auto"
       refY="0"
       refX="0"
       id="Arrow1Mstart-2"
       style="overflow:visible">
      <path
         inkscape:connector-curvature="0"
         id="path4173-6"
         d="M 0,0 5,-5 -12.5,0 5,5 0,0 z"
         style="fill-rule:evenodd;stroke:#000000;stroke-width:1pt"
         transform="matrix(0.4,0,0,0.4,4,0)" />
    </marker>
    <marker
       inkscape:stockid="Arrow1Mstart"
       orient="auto"
       refY="0"
       refX="0"
       id="marker4833"
       style="overflow:visible">
      <path
         inkscape:connector-curvature="0"
         id="path4835"
         d="M 0,0 5,-5 -12.5,0 5,5 0,0 z"
         style="fill-rule:evenodd;stroke:#000000;stroke-width:1pt"
         transform="matrix(0.4,0,0,0.4,4,0)" />
    </marker>
    <marker
       inkscape:stockid="Arrow1Mstart"
       orient="auto"
       refY="0"
       refX="0"
       id="Arrow1Mstart-9"
       style="overflow:visible">
      <path
         inkscape:connector-curvature="0"
         id="path4173-2"
         d="M 0,0 5,-5 -12.5,0 5,5 0,0 z"
         style="fill-rule:evenodd;stroke:#000000;stroke-width:1pt"
         transform="matrix(0.4,0,0,0.4,4,0)" />
    </marker>
    <marker
       inkscape:stockid="Arrow1Mstart"
       orient="auto"
       refY="0"
       refX="0"
       id="marker4890"
       style="overflow:visible">
      <path
         inkscape:connector-curvature="0"
         id="path4892"
         d="M 0,0 5,-5 -12.5,0 5,5 0,0 z"
         style="fill-rule:evenodd;stroke:#000000;stroke-width:1pt"
         transform="matrix(0.4,0,0,0.4,4,0)" />
    </marker>
    <marker
       inkscape:stockid="Arrow1Mend"
       orient="auto"
       refY="0"
       refX="0"
       id="Arrow1Mend-7"
       style="overflow:visible">
      <path
         inkscape:connector-curvature="0"
         id="path4176-3"
         d="M 0,0 5,-5 -12.5,0 5,5 0,0 z"
         style="fill-rule:evenodd;stroke:#000000;stroke-width:1pt"
         transform="matrix(-0.4,0,0,-0.4,-4,0)" />
    </marker>
    <marker
       inkscape:stockid="Arrow1Mend"
       orient="auto"
       refY="0"
       refX="0"
       id="Arrow1Mend-1"
       style="overflow:visible">
      <path
         inkscape:connector-curvature="0"
         id="path4176-2"
         d="M 0,0 5,-5 -12.5,0 5,5 0,0 z"
         style="fill-rule:evenodd;stroke:#000000;stroke-width:1pt"
         transform="matrix(-0.4,0,0,-0.4,-4,0)" />
    </marker>
  </defs>
  <sodipodi:namedview
     id="base"
     pagecolor="#ffffff"
     bordercolor="#666666"
     borderopacity="1.0"
     inkscape:pageopacity="0.0"
     inkscape:pageshadow="2"
     inkscape:zoom="1.4"
     inkscape:cx="297.45359"
     inkscape:cy="125.74772"
     inkscape:document-units="px"
     inkscape:current-layer="layer1"
     showgrid="false"
     fit-margin-top="0"
     fit-margin-left="0"
     fit-margin-right="0"
     fit-margin-bottom="0"
     inkscape:window-width="1920"
     inkscape:window-height="1031"
     inkscape:window-x="0"
     inkscape:window-y="25"
     inkscape:window-maximized="1" />
  <metadata
     id="metadata7">
    <rdf:RDF>
      <cc:Work
         rdf:about="">
        <dc:format>image/svg+xml</dc:format>
        <dc:type
           rdf:resource="http://purl.org/dc/dcmitype/StillImage" />
        <dc:title></dc:title>
      </cc:Work>
    </rdf:RDF>
  </metadata>
  <g
     inkscape:label="Ebene 1"
     inkscape:groupmode="layer"
     id="layer1"
     transform="translate(-28.248604,-31.745442)">
    <g
       id="g3830"
       transform="translate(69.642857,67.808714)">
      <path
         transform="translate(0,0.3679938)"
         d="m 159.08079,143.57064 -20.57335,35.62017 -20.68965,-35.55274 -41.134638,-0.007 20.444753,-35.69414 -20.561294,-35.627117 41.134399,-0.141391 20.57335,-35.620164 20.68965,35.552742 41.13464,0.007 -20.44476,35.694132 20.5613,35.62712 z"
         inkscape:randomized="0"
         inkscape:rounded="0"
         inkscape:flatsided="false"
         sodipodi:arg2="1.5691623"
         sodipodi:arg1="1.0455636"
         sodipodi:r2="71.32135"
         sodipodi:r1="41.26305"
         sodipodi:cy="107.86955"
         sodipodi:cx="138.3909"
         sodipodi:sides="6"
         id="path3759"
         style="fill:none;stroke:#000000;stroke-width:1.29999995;stroke-miterlimit:4;stroke-opacity:1;stroke-dasharray:none;stroke-dashoffset:0"
         sodipodi:type="star" />
      <g
         transform="translate(0,0.27674444)"
         id="g3778">
        <rect
           style="fill:#ffffff;fill-opacity:1;stroke:none"
           id="rect3776"
           width="32.63393"
           height="29.955357"
           x="75.35714"
           y="91.335396" />
        <path
           sodipodi:type="arc"
           style="fill:#ffffff;fill-opacity:1;stroke:#000000;stroke-width:1.28289425;stroke-miterlimit:4;stroke-opacity:1;stroke-dasharray:none;stroke-dashoffset:0"
           id="path3761"
           sodipodi:cx="56.442272"
           sodipodi:cy="106.48059"
           sodipodi:rx="16.28871"
           sodipodi:ry="34.723995"
           d="m 72.730982,106.48059 c 0,19.17753 -7.292704,34.724 -16.28871,34.724 -8.996006,0 -16.288709,-15.54647 -16.288709,-34.724 0,-19.177532 7.292703,-34.723994 16.288709,-34.723994 8.996006,0 16.28871,15.546462 16.28871,34.723994 z"
           transform="matrix(0.99946791,0,0,1.0273918,19.130829,-1.4364839)" />
      </g>
      <g
         id="g3778-3"
         transform="matrix(-0.51286743,0.85846782,-0.85846782,-0.51286743,301.32811,43.491865)">
        <rect
           style="fill:#ffffff;fill-opacity:1;stroke:none"
           id="rect3776-6"
           width="32.63393"
           height="29.955357"
           x="75.35714"
           y="91.335396" />
        <path
           sodipodi:type="arc"
           style="fill:#ffffff;fill-opacity:1;stroke:#000000;stroke-width:1.28289425;stroke-miterlimit:4;stroke-opacity:1;stroke-dasharray:none;stroke-dashoffset:0"
           id="path3761-7"
           sodipodi:cx="56.442272"
           sodipodi:cy="106.48059"
           sodipodi:rx="16.28871"
           sodipodi:ry="34.723995"
           d="m 72.730982,106.48059 c 0,19.17753 -7.292704,34.724 -16.28871,34.724 -8.996006,0 -16.288709,-15.54647 -16.288709,-34.724 0,-19.177532 7.292703,-34.723994 16.288709,-34.723994 8.996006,0 16.28871,15.546462 16.28871,34.723994 z"
           transform="matrix(0.99946791,0,0,1.0273918,19.130829,-1.4364839)" />
      </g>
      <g
         id="g3778-3-5"
         transform="matrix(-0.51286743,-0.85846782,-0.85846782,0.51286743,301.7816,172.98324)">
        <rect
           style="fill:#ffffff;fill-opacity:1;stroke:none"
           id="rect3776-6-3"
           width="32.63393"
           height="29.955357"
           x="75.35714"
           y="91.335396" />
        <path
           sodipodi:type="arc"
           style="fill:#ffffff;fill-opacity:1;stroke:#000000;stroke-width:1.28289425;stroke-miterlimit:4;stroke-opacity:1;stroke-dasharray:none;stroke-dashoffset:0"
           id="path3761-7-5"
           sodipodi:cx="56.442272"
           sodipodi:cy="106.48059"
           sodipodi:rx="16.28871"
           sodipodi:ry="34.723995"
           d="m 72.730982,106.48059 c 0,19.17753 -7.292704,34.724 -16.28871,34.724 -8.996006,0 -16.288709,-15.54647 -16.288709,-34.724 0,-19.177532 7.292703,-34.723994 16.288709,-34.723994 8.996006,0 16.28871,15.546462 16.28871,34.723994 z"
           transform="matrix(0.99946791,0,0,1.0273918,19.130829,-1.4364839)" />
      </g>
    </g>
    <g
       id="g4817"
       transform="translate(69.642857,69.285714)">
      <path
         sodipodi:nodetypes="cccccccc"
         inkscape:connector-curvature="0"
         id="path3842-1-0-9"
         d="m 23.992418,96.873233 9.52912,0 c 3.01877,0.0455 2.20477,6.201897 5.19695,6.177277 2.99521,0.0363 2.97721,-12.404017 5.9761,-12.354547 2.99845,-3.6e-4 3.02483,12.365977 5.98585,12.354547 3.00439,0.0224 2.97083,-12.400717 5.9761,-12.354547 3.01407,0.0189 2.07105,6.15719 5.08264,6.17727 l 9.52912,0"
         style="fill:none;stroke:#000000;stroke-width:1.29999995;stroke-linecap:butt;stroke-linejoin:miter;stroke-miterlimit:4;stroke-opacity:1;stroke-dasharray:none;marker-start:url(#Arrow1Mstart);marker-end:none" />
      <path
         sodipodi:nodetypes="cccccccc"
         inkscape:connector-curvature="0"
         id="path3842-1-0-9-6"
         d="m 70.293298,116.64793 -9.52912,0 c -3.01877,0.0455 -2.20477,6.2019 -5.19695,6.17728 -2.99521,0.0363 -2.97721,-12.40402 -5.9761,-12.35455 -2.99845,-3.6e-4 -3.02483,12.36598 -5.98585,12.35455 -3.00439,0.0224 -2.97083,-12.40072 -5.9761,-12.35455 -3.01407,0.0189 -2.07105,6.15719 -5.08264,6.17727 l -9.52912,0"
         style="fill:none;stroke:#000000;stroke-width:1.29999995;stroke-linecap:butt;stroke-linejoin:miter;stroke-miterlimit:4;stroke-opacity:1;stroke-dasharray:none;marker-start:url(#Arrow1Mstart);marker-end:none" />
    </g>
    <g
       transform="matrix(0.49673386,-0.86790292,0.86790292,0.49673386,137.13904,87.746023)"
       id="g4817-1">
      <path
         sodipodi:nodetypes="cccccccc"
         inkscape:connector-curvature="0"
         id="path3842-1-0-9-8"
         d="m 23.992418,96.873233 9.52912,0 c 3.01877,0.0455 2.20477,6.201897 5.19695,6.177277 2.99521,0.0363 2.97721,-12.404017 5.9761,-12.354547 2.99845,-3.6e-4 3.02483,12.365977 5.98585,12.354547 3.00439,0.0224 2.97083,-12.400717 5.9761,-12.354547 3.01407,0.0189 2.07105,6.15719 5.08264,6.17727 l 9.52912,0"
         style="fill:none;stroke:#000000;stroke-width:1.29999995;stroke-linecap:butt;stroke-linejoin:miter;stroke-miterlimit:4;stroke-opacity:1;stroke-dasharray:none;marker-start:url(#Arrow1Mstart);marker-end:none" />
      <path
         sodipodi:nodetypes="cccccccc"
         inkscape:connector-curvature="0"
         id="path3842-1-0-9-6-7"
         d="m 70.293298,116.64793 -9.52912,0 c -3.01877,0.0455 -2.20477,6.2019 -5.19695,6.17728 -2.99521,0.0363 -2.97721,-12.40402 -5.9761,-12.35455 -2.99845,-3.6e-4 -3.02483,12.36598 -5.98585,12.35455 -3.00439,0.0224 -2.97083,-12.40072 -5.9761,-12.35455 -3.01407,0.0189 -2.07105,6.15719 -5.08264,6.17727 l -9.52912,0"
         style="fill:none;stroke:#000000;stroke-width:1.29999995;stroke-linecap:butt;stroke-linejoin:miter;stroke-miterlimit:4;stroke-opacity:1;stroke-dasharray:none;marker-start:url(#Arrow1Mstart);marker-end:none" />
    </g>
    <g
       transform="matrix(-0.49673386,-0.86790292,-0.86790292,0.49673386,370.07528,242.10315)"
       id="g4817-1-2">
      <path
         sodipodi:nodetypes="cccccccc"
         inkscape:connector-curvature="0"
         id="path3842-1-0-9-8-8"
         d="m 23.992418,96.873233 9.52912,0 c 3.01877,0.0455 2.20477,6.201897 5.19695,6.177277 2.99521,0.0363 2.97721,-12.404017 5.9761,-12.354547 2.99845,-3.6e-4 3.02483,12.365977 5.98585,12.354547 3.00439,0.0224 2.97083,-12.400717 5.9761,-12.354547 3.01407,0.0189 2.07105,6.15719 5.08264,6.17727 l 9.52912,0"
         style="fill:none;stroke:#000000;stroke-width:1.29999995;stroke-linecap:butt;stroke-linejoin:miter;stroke-miterlimit:4;stroke-opacity:1;stroke-dasharray:none;marker-start:url(#Arrow1Mstart);marker-end:none" />
      <path
         sodipodi:nodetypes="cccccccc"
         inkscape:connector-curvature="0"
         id="path3842-1-0-9-6-7-9"
         d="m 70.293298,116.64793 -9.52912,0 c -3.01877,0.0455 -2.20477,6.2019 -5.19695,6.17728 -2.99521,0.0363 -2.97721,-12.40402 -5.9761,-12.35455 -2.99845,-3.6e-4 -3.02483,12.36598 -5.98585,12.35455 -3.00439,0.0224 -2.97083,-12.40072 -5.9761,-12.35455 -3.01407,0.0189 -2.07105,6.15719 -5.08264,6.17727 l -9.52912,0"
         style="fill:none;stroke:#000000;stroke-width:1.29999995;stroke-linecap:butt;stroke-linejoin:miter;stroke-miterlimit:4;stroke-opacity:1;stroke-dasharray:none;marker-start:url(#Arrow1Mstart);marker-end:none" />
    </g>
    <path
       style="fill:none;stroke:#000000;stroke-width:1.29999995;stroke-linecap:butt;stroke-linejoin:miter;stroke-miterlimit:4;stroke-opacity:1;stroke-dasharray:none;marker-end:url(#Arrow1Mend)"
       d="m 38.214286,176.04627 38.571428,0"
       id="path4916"
       inkscape:connector-curvature="0" />
    <path
       style="fill:none;stroke:#000000;stroke-width:1.29999995;stroke-linecap:butt;stroke-linejoin:miter;stroke-miterlimit:4;stroke-opacity:1;stroke-dasharray:none;marker-end:url(#Arrow1Mend)"
       d="M 291.81651,32.395442 272.62762,65.854995"
       id="path4916-6"
       inkscape:connector-curvature="0" />
    <path
       style="fill:none;stroke:#000000;stroke-width:1.29999995;stroke-linecap:butt;stroke-linejoin:miter;stroke-miterlimit:4;stroke-opacity:1;stroke-dasharray:none;marker-end:url(#Arrow1Mend)"
       d="m 273.45898,285.58819 19.18889,33.45955"
       id="path4916-6-9"
       inkscape:connector-curvature="0" />
    <text
       xml:space="preserve"
       style="font-size:20px;font-style:normal;font-weight:normal;line-height:125%;letter-spacing:0px;word-spacing:0px;fill:#000000;fill-opacity:1;stroke:none;font-family:Sans"
       x="26.285713"
       y="164.1479"
       id="text5177"
       sodipodi:linespacing="125%"><tspan
         sodipodi:role="line"
         id="tspan5179"
         x="26.285713"
         y="164.1479">Ma<tspan
   style="font-size:65.00091553%;baseline-shift:sub"
   id="tspan5181">1</tspan></tspan></text>
    <text
       xml:space="preserve"
       style="font-size:20px;font-style:normal;font-weight:normal;line-height:125%;letter-spacing:0px;word-spacing:0px;fill:#000000;fill-opacity:1;stroke:none;font-family:Sans"
       x="98.574371"
       y="147.65222"
       id="text5177-0"
       sodipodi:linespacing="125%"><tspan
         sodipodi:role="line"
         id="tspan5179-6"
         x="98.574371"
         y="147.65222">g<tspan
   style="font-size:65.00091553%;baseline-shift:sub"
   id="tspan5181-8">1</tspan></tspan></text>
    <text
       xml:space="preserve"
       style="font-size:20px;font-style:normal;font-weight:normal;line-height:125%;letter-spacing:0px;word-spacing:0px;fill:#000000;fill-opacity:1;stroke:none;font-family:Sans"
       x="101.43152"
       y="214.36652"
       id="text5177-7"
       sodipodi:linespacing="125%"><tspan
         sodipodi:role="line"
         id="tspan5179-4"
         x="101.43152"
         y="214.36652">f<tspan
   style="font-size:65.00091553%;baseline-shift:sub"
   id="tspan5181-9">1</tspan></tspan></text>
    <text
       xml:space="preserve"
       style="font-size:20px;font-style:normal;font-weight:normal;line-height:125%;letter-spacing:0px;word-spacing:0px;fill:#000000;fill-opacity:1;stroke:none;font-family:Sans"
       x="277.93347"
       y="250.95984"
       id="text5177-7-2"
       sodipodi:linespacing="125%"><tspan
         sodipodi:role="line"
         id="tspan5179-4-4"
         x="277.93347"
         y="250.95984">f<tspan
   style="font-size:65.00091553%;baseline-shift:sub"
   id="tspan5181-9-4">3</tspan></tspan></text>
    <text
       xml:space="preserve"
       style="font-size:20px;font-style:normal;font-weight:normal;line-height:125%;letter-spacing:0px;word-spacing:0px;fill:#000000;fill-opacity:1;stroke:none;font-family:Sans"
       x="278.14777"
       y="115.10269"
       id="text5177-7-5"
       sodipodi:linespacing="125%"><tspan
         sodipodi:role="line"
         id="tspan5179-4-9"
         x="278.14777"
         y="115.10269">g<tspan
   style="font-size:65.00091553%;baseline-shift:sub"
   id="tspan5181-9-1">2</tspan></tspan></text>
    <text
       xml:space="preserve"
       style="font-size:20px;font-style:normal;font-weight:normal;line-height:125%;letter-spacing:0px;word-spacing:0px;fill:#000000;fill-opacity:1;stroke:none;font-family:Sans"
       x="218.70775"
       y="79.454117"
       id="text5177-0-2"
       sodipodi:linespacing="125%"><tspan
         sodipodi:role="line"
         id="tspan5179-6-8"
         x="218.70775"
         y="79.454117">f<tspan
   style="font-size:65.00091553%;baseline-shift:sub"
   id="tspan5181-8-9">2</tspan></tspan></text>
    <text
       xml:space="preserve"
       style="font-size:20px;font-style:normal;font-weight:normal;line-height:125%;letter-spacing:0px;word-spacing:0px;fill:#000000;fill-opacity:1;stroke:none;font-family:Sans"
       x="220.20775"
       y="279.23984"
       id="text5177-0-6"
       sodipodi:linespacing="125%"><tspan
         sodipodi:role="line"
         id="tspan5179-6-0"
         x="220.20775"
         y="279.23984">g<tspan
   style="font-size:65.00091553%;baseline-shift:sub"
   id="tspan5181-8-6">3</tspan></tspan></text>
    <text
       xml:space="preserve"
       style="font-size:20px;font-style:normal;font-weight:normal;line-height:125%;letter-spacing:0px;word-spacing:0px;fill:#000000;fill-opacity:1;stroke:none;font-family:Sans"
       x="289.71722"
       y="301.00937"
       id="text5177-4"
       sodipodi:linespacing="125%"><tspan
         sodipodi:role="line"
         id="tspan5179-0"
         x="289.71722"
         y="301.00937">Ma<tspan
   style="font-size:65.00091553%;baseline-shift:sub"
   id="tspan5181-94">3</tspan></tspan></text>
    <text
       xml:space="preserve"
       style="font-size:20px;font-style:normal;font-weight:normal;line-height:125%;letter-spacing:0px;word-spacing:0px;fill:#000000;fill-opacity:1;stroke:none;font-family:Sans"
       x="288.00296"
       y="62.580791"
       id="text5177-5"
       sodipodi:linespacing="125%"><tspan
         sodipodi:role="line"
         id="tspan5179-46"
         x="288.00296"
         y="62.580791">Ma<tspan
   style="font-size:65.00091553%;baseline-shift:sub"
   id="tspan5181-6">2</tspan></tspan></text>
  </g>
</svg>
